{
	"fileName" : "actions.json",
	"actions" : [
	{
			"name" : "CHAT",
			"intent" : {
				"class" : "attitude",
				"type"  : "closeness",
				"intentDirection" : true,
				"first" : "initiator",
				"second" : "responder"
			},
			"conditions" : [
			],
			"influenceRules" : [
			],
			"leadsTo" : ["chat_s", "chat_f"]
		},
		{
			"name" : "chat_s",
			"displayName" : "Chat",
			"conditions" : [
			],
			"influenceRules" : [
				{
					"name": "Unhappy people are unlikely to socialize well.",
					"conditions": [
						{
							"class" : "status",
							"type" : "happiness",
							"first" : "initiator",
							"operator" : "<",
							"value" : 80
						}
					],
					"weight" : -10
				}
			],
			"isAccept" : true,
			"effects" : [{
				"class" : "attitude",
				"type" : "closeness",
				"first" : "initiator",
				"second" : "responder",
				"operator" : "+",
				"value" : 5
			},{
				"class" : "attitude",
				"type" : "closeness",
				"first" : "responder",
				"second" : "initiator",
				"operator" : "+",
				"value" : 5
			},{
				"class" : "status",
				"type" : "happiness",
				"first" : "initiator",
				"operator" : "+",
				"value" : 5
			},{
				"class" : "SFDBLabel",
				"type" : "friendly",
				"first" : "initiator",
				"second" : "responder",
				"value" : true
			}]
		},
		{
			"name" : "chat_f",
			"displayName" : "Chat",
			"conditions" : [],
			"influenceRules" : [],
			"isAccept" : false,
			"effects" : [{
				"class" : "attitude",
				"type" : "closeness",
				"first" : "initiator",
				"second" : "responder",
				"operator" : "+",
				"value" : 1
			},{
				"class" : "attitude",
				"type" : "closeness",
				"first" : "responder",
				"second" : "initiator",
				"operator" : "-",
				"value" : 1
			},{
				"class" : "status",
				"type" : "happiness",
				"first" : "initiator",
				"operator" : "+",
				"value" : 2
			}]
		},
		
		
		
		
		
		
		{
			"name" : "LOVE",
			"intent" : {
				"class" : "attitude",
				"type"  : "attraction",
				"intentDirection" : true,
				"first" : "initiator",
				"second" : "responder"
			},
			"conditions" : [],
			"influenceRules" : [
			],
			"leadsTo" : ["love_s", "love_f"]
		},
		{
			"name" : "love_s",
			"displayName" : "Woo",
			"conditions" : [
			],
			"influenceRules" : [
				{
					"name": "Insecure people are unlikely to attract others.",
					"conditions": [
						{
							"class" : "status",
							"type" : "security",
							"first" : "initiator",
							"operator" : "<",
							"value" : 80
						}
					],
					"weight" : -10
				}
			],
			"isAccept" : true,
			"effects" : [{
				"class" : "attitude",
				"type" : "attraction",
				"first" : "initiator",
				"second" : "responder",
				"operator" : "+",
				"value" : 2
			},{
				"class" : "attitude",
				"type" : "attraction",
				"first" : "responder",
				"second" : "initiator",
				"operator" : "+",
				"value" : 5
			},{
				"class" : "status",
				"type" : "happiness",
				"first" : "initiator",
				"operator" : "+",
				"value" : 5
			},{
				"class" : "SFDBLabel",
				"type" : "adorable",
				"first" : "initiator",
				"second" : "responder",
				"value" : true
			}]
		},
		{
			"name" : "love_f",
			"displayName" : "Woo",
			"conditions" : [],
			"influenceRules" : [],
			"isAccept" : false,
			"effects" : [{
				"class" : "attitude",
				"type" : "attraction",
				"first" : "initiator",
				"second" : "responder",
				"operator" : "+",
				"value" : 1
			},{
				"class" : "attitude",
				"type" : "closeness",
				"first" : "responder",
				"second" : "initiator",
				"operator" : "-",
				"value" : 1
			},{
				"class" : "status",
				"type" : "happiness",
				"first" : "initiator",
				"operator" : "-",
				"value" : 2
			}]
		},
		
		
		
		
		
		
		
		{
			"name" : "ACCUSE",
			"intent" : {
				"class" : "attitude",
				"type" : "suspicion",
				"intentDirection" : true,
				"first" : "initiator",
				"second" : "responder"
			},
			"conditions" : [
						{
							"class" : "trait",
							"type" : "alive",
							"first" : "initiator",
							"value" : true
						},
						{
							"class" : "trait",
							"type" : "alive",
							"first" : "responder",
							"value" : true
						},
						{
							"class" : "trait",
							"type" : "alive",
							"first" : "onlooker",
							"value" : true
						}
			],
			"influenceRules" : [
			{
					"name": "Insecure people are accusative.",
					"conditions": [
						{
							"class" : "trait",
							"type" : "alive",
							"first" : "initiator",
							"value" : true
						},
						{
							"class" : "status",
							"type" : "security",
							"first" : "initiator",
							"operator" : "<",
							"value" : 20
						}
					],
					"weight" : 5
				}
			],
			"leadsTo" : ["accuse_s","accuse_f"]
		},
		{
			"name" : "accuse_s",
			"isAccept" : true,
			"conditions" : [
						],
			"displayName" : "Accuse of being possessed",
			"influenceRules" : [
				{
					"name": "You accuse people you suspect.",
					"conditions": [
						{
							"class" : "trait",
							"type" : "alive",
							"first" : "responder",
							"value" : true
						},
						{
							"class" : "trait",
							"type" : "alive",
							"first" : "responder",
							"value" : true
						},
						{
							"class" : "trait",
							"type" : "alive",
							"first" : "onlooker",
							"value" : true
						},
						 {
							"class" : "attitude",
							"type" : "suspicion",
							"first" : "initiator",
							"second" : "responder",
							"operator" : ">",
							"value" : 1
						}
					],
					"weight" : 10
				},
				{
					"name": "You don't want to accuse someone in front of people close to them.",
					"conditions": [
						{
							"class" : "trait",
							"type" : "alive",
							"first" : "onlooker",
							"value" : true
						},
						 {
							"class" : "attitude",
							"type" : "closeness",
							"first" : "onlooker",
							"second" : "responder",
							"operator" : ">",
							"value" : 50
						}
					],
					"weight" : -10
				}
			],
			"effects" : [{
				"class" : "status",
				"type" : "security",
				"first" : "initiator",
				"operator" : "+",
				"value" : 2
			},
			{
				"class" : "status",
				"type" : "security",
				"first" : "onlooker",
				"operator" : "-",
				"value" : 1
			},
			{
				"class" : "attitude",
				"type" : "suspicion",
				"first" : "onlooker",
				"second" : "responder",
				"operator" : "+",
				"value" : 1
			},
			{
				"class" : "attitude",
				"type" : "closeness",
				"first" : "initiator",
				"second" : "responder",
				"operator" : "-",
				"value" : 5
			},
			{
				"class" : "attitude",
				"type" : "closeness",
				"first" : "onlooker",
				"second" : "responder",
				"operator" : "-",
				"value" : 5
			},
			{
					"class" : "SFDBLabel",
					"type" : "paranoid",
					"first" : "initiator",
					"second" : "onlooker",
					"value" : true
				}]
		},
		{
			"name" : "accuse_f",
			"isAccept" : false,
			"conditions" : [
						],
			"displayName" : "Accuse of being possessed",
			"influenceRules" : [
				{
					"name": "You accuse people you suspect.",
					"conditions": [
						{
							"class" : "trait",
							"type" : "alive",
							"first" : "responder",
							"value" : true
						},
						{
							"class" : "trait",
							"type" : "alive",
							"first" : "responder",
							"value" : true
						},
						{
							"class" : "trait",
							"type" : "alive",
							"first" : "onlooker",
							"value" : true
						},
						 {
							"class" : "attitude",
							"type" : "suspicion",
							"first" : "initiator",
							"second" : "responder",
							"operator" : ">",
							"value" : 1
						}
					],
					"weight" : 10
				}
			],
			"effects" : [{
				"class" : "status",
				"type" : "security",
				"first" : "initiator",
				"operator" : "+",
				"value" : 1
			},
			{
				"class" : "status",
				"type" : "security",
				"first" : "onlooker",
				"operator" : "-",
				"value" : 1
			},
			{
				"class" : "attitude",
				"type" : "closeness",
				"first" : "initiator",
				"second" : "responder",
				"operator" : "-",
				"value" : 5
			},
			{
				"class" : "attitude",
				"type" : "closeness",
				"first" : "onlooker",
				"second" : "initiator",
				"operator" : "-",
				"value" : 5
			},
			{
				"class" : "attitude",
				"type" : "suspicion",
				"first" : "onlooker",
				"second" : "responder",
				"operator" : "+",
				"value" : 1
			},
			{
					"class" : "SFDBLabel",
					"type" : "paranoid",
					"first" : "initiator",
					"second" : "onlooker",
					"value" : true
				}]
		},
		
		
		
		
		
		
		
		
		
		{
			"name" : "ATTACK",
			"intent" : {
				"class" : "attitude",
				"type" : "aggression",
				"intentDirection" : true,
				"first" : "initiator",
				"second" : "responder"
			},
			"conditions" : [
						{
							"class" : "trait",
							"type" : "alive",
							"first" : "initiator",
							"value" : true
						},
						{
							"class" : "trait",
							"type" : "alive",
							"first" : "responder",
							"value" : true
						}
			],
			"influenceRules" : [
			{
					"name": "Insecure people are generally less aggressive.",
					"conditions": [
						{
							"class" : "status",
							"type" : "security",
							"first" : "initiator",
							"operator" : "<",
							"value" : 30
						}
					],
					"weight" : -5
				},
				{
					"name": "Insane people can be very aggressive.",
					"conditions": [
						{
							"class" : "status",
							"type" : "sanity",
							"first" : "initiator",
							"operator" : "<",
							"value" : 10
						}
					],
					"weight" : 25
				}
			],
			"leadsTo" : ["attack_s","attack_f"]
		},
		{
			"name" : "attack_s",
			"isAccept" : true,
			"conditions" : [
						],
			"displayName" : "Attack",
			"influenceRules" : [
				{
					"name": "People will vigorously fight those they strongly suspect",
					"conditions": [
						 {
							"class" : "attitude",
							"type" : "suspicion",
							"first" : "initiator",
							"second" : "responder",
							"operator" : ">",
							"value" : 50
						}
					],
					"weight" : 5
				},
				{
					"name": "People are more likely to win a fight if they are strong.",
					"conditions": [
						 {
							"class" : "ability",
							"type" : "physical",
							"first" : "initiator",
							"operator" : ">",
							"value" : 5
						}
					],
					"weight" : 10
				}
			],
			"effects" : [{
				"class" : "status",
				"type" : "health",
				"first" : "initiator",
				"operator" : "-",
				"value" : 1
			},
			{
				"class" : "status",
				"type" : "health",
				"first" : "responder",
				"operator" : "-",
				"value" : 10
			},
			{
				"class" : "attitude",
				"type" : "suspicion",
				"first" : "initiator",
				"second" : "responder",
				"operator" : "-",
				"value" : 2
			},
			{
				"class" : "attitude",
				"type" : "aggression",
				"first" : "responder",
				"second" : "initiator",
				"operator" : "+",
				"value" : 20
			},
			{
					"class" : "SFDBLabel",
					"type" : "threatening",
					"first" : "initiator",
					"second" : "responder",
					"value" : true
				}]
		},
		{
			"name" : "attack_f",
			"isAccept" : false,
			"conditions" : [
						],
			"displayName" : "Attack",
			"influenceRules" : [
				{
					"name": "People usually won't harm someone they care about.",
					"conditions": [
						 {
							"class" : "attitude",
							"type" : "closeness",
							"first" : "initiator",
							"second" : "responder",
							"operator" : ">",
							"value" : 50
						}
					],
					"weight" : 10
				},
				{
					"name": "Weak people are bad at fighting.",
					"conditions": [
						 {
							"class" : "ability",
							"type" : "physical",
							"first" : "initiator",
							"operator" : "<",
							"value" : 5
						}
					],
					"weight" : 10
				}
			],
			"effects" : [{
				"class" : "status",
				"type" : "health",
				"first" : "initiator",
				"operator" : "-",
				"value" : 10
			},
			{
				"class" : "status",
				"type" : "health",
				"first" : "responder",
				"operator" : "-",
				"value" : 1
			},
			{
				"class" : "attitude",
				"type" : "suspicion",
				"first" : "initiator",
				"second" : "responder",
				"operator" : "-",
				"value" : 1
			},
			{
				"class" : "attitude",
				"type" : "aggression",
				"first" : "responder",
				"second" : "initiator",
				"operator" : "+",
				"value" : 20
			},
			{
					"class" : "SFDBLabel",
					"type" : "threatening",
					"first" : "initiator",
					"second" : "onlooker",
					"value" : true
				}]
		},
		
		
		
		
		
		
		
		
		
		
	{
		"name" : "POSSESS",
			"intent" : {
				"class" : "magic",
				"type"  : "possessing",
				"intentDirection" : true,
				"first" : "initiator",
				"second" : "responder"
			},
			"conditions" : [
						{
							"class" : "trait",
							"type" : "alive",
							"first" : "initiator",
							"value" : false
						 },
						 {
							"class" : "magic",
							"type"  : "possessing",
							"value" : false,
							"first" : "initiator",
							"second" : "responder"
						}
			],
			"influenceRules" : [
			{
					"name": "Ghosts like to possess weak poeple.",
					"conditions": [
						{
							"class" : "ability",
							"type" : "physical",
							"first" : "responder",
							"operator" : "<",
							"value" : 5
						}
					],
					"weight" : 10
				}
			],
			"leadsTo" : ["possess_new","possess_other"]
	},
	{
		"name" : "possess_new",
			"isAccept":  true,
			"displayName" : "Possess",
			"conditions" : [
			],
			"influenceRules" : [],
			"effects" : [{
				"class" : "magic",
				"type" : "possessing",
				"first" : "initiator",
				"second" : "responder",
				"value" : true
			},
			{
				"class" : "attitude",
				"type" : "aggression",
				"first" : "initiator",
				"second" : "responder",
				"operator" : "-",
				"value" : 5
			}
			]
	},
	{
		"name" : "possess_other",
			"isAccept":  true,
			"displayName" : "Possess",
			"conditions" : [
				{
							"class" : "magic",
							"type"  : "possessing",
							"value" : true,
							"first" : "initiator",
							"second" : "victim"
				}
			],
			"influenceRules" : [{
					"name": "If the ghost is possessing someone it must stop before possessing another.",
					"conditions": [
					],
					"weight" : 5
				}],
			"effects" : [{
				"class" : "magic",
				"type" : "possessing",
				"first" : "initiator",
				"second" : "responder",
				"value" : true
			},
			{
				"class" : "magic",
				"type" : "possessing",
				"first" : "initiator",
				"second" : "victim",
				"value" : false
			},
			{
				"class" : "attitude",
				"type" : "aggression",
				"first" : "initiator",
				"second" : "responder",
				"operator" : "-",
				"value" : 5
			}
			]
	},
	
	
	
	
	
		
		{
			"name" : "BEHAPPY",
			"intent" : {
				"class" : "status",
				"type"  : "happiness",
				"intentDirection" : true,
				"first" : "initiator"
			},
			"conditions" : [
							{
							"class" : "trait",
							"type" : "alive",
							"first" : "initiator",
							"value" : true
						 }
			],
			"influenceRules" : [
			{
					"name": "People want to be happy.",
					"conditions": [
						{
							"class" : "trait",
							"type" : "alive",
							"first" : "initiator",
							"value" : true
						}
					],
					"weight" : 5
				},
					{
						"name": "Secure people are more inclined to have fun.",
						"conditions": [
							{
								"class" : "status",
								"type" : "security",
								"first" : "initiator",
								"value" : 5,
								"operator" : ">"
							}
						],
					"weight" : 5
					}

				],
			"leadsTo" : ["NAP", "PLAY"]
		},
		{
			"name" : "NAP",
			"conditions" : [],
			"influenceRules" : [],
			"leadsTo" : ["nap_s"]
		},
		{
			"name" : "nap_s",
			"conditions" : [],
			"displayName" : "Take a nap",
			"influenceRules" : [
				{
					"name": "Girls like naps. Well, at least I do.",
					"conditions": [
						{
							"class" : "trait",
							"type" : "male",
							"first" : "initiator",
							"value" : false
						}
					],
					"weight" : 5
				}
			],
			"effects" : [{
				"class" : "status",
				"type" : "happiness",
				"first" : "initiator",
				"operator" : "+",
				"value" : 2
			},
			{
				"class" : "status",
				"type" : "sanity",
				"first" : "initiator",
				"operator" : "+",
				"value" : 5
			}
			]
		},
		{
			"name" : "PLAY",
			"conditions" : [
				{
							"class" : "trait",
							"type" : "alive",
							"first" : "playmate",
							"value" : true
						 }
			],
			"displayName" : "Play games",
			"influenceRules" : [],
			"leadsTo" : ["play_s","play_f"]
		},
		{
			"name" : "play_s",
			"conditions" : [
			],
			"displayName" : "Play games well",
			"isAccept" : true,
			"influenceRules" : [
				{
					"name": "Charismatic people are better at playing games.",
					"conditions": [
						{
							"class" : "ability",
							"type" : "social",
							"first" : "initiator",
							"operator" : "<",
							"value" : 5
						}
					],
					"weight" : -10
				}
			],
			"effects" : [{
				"class" : "status",
				"type" : "happiness",
				"first" : "initiator",
				"operator" : "+",
				"value" : 5
			},
			{
				"class" : "status",
				"type" : "happiness",
				"first" : "playmate",
				"operator" : "+",
				"value" : 5
			},
			{
				"class" : "attitude",
				"type" : "closeness",
				"first" : "playmate",
				"second" : "initiator",
				"operator" : "+",
				"value" : 5
			},
			{
				"class" : "status",
				"type" : "sanity",
				"first" : "initiator",
				"operator" : "+",
				"value" : 5
			}
			]
		},
		{
			"name" : "play_f",
			"conditions" : [
			],
			"displayName" : "Play games badly",
			"isAccept" : false,
			"influenceRules" : [
				{
					"name": "Awkward people are worse at playing games.",
					"conditions": [
						{
							"class" : "ability",
							"type" : "social",
							"first" : "initiator",
							"operator" : "<",
							"value" : 5
						}
					],
					"weight" : 5
				}
			],
			"effects" : [{
				"class" : "status",
				"type" : "happiness",
				"first" : "initiator",
				"operator" : "+",
				"value" : 1
			},
			{
				"class" : "status",
				"type" : "happiness",
				"first" : "playmate",
				"operator" : "+",
				"value" : 1
			}
			]
		},
		
		
		
		
		
		
		
		
		
		{
			"name" : "DEFEND",
			"intent" : {
				"class" : "status",
				"type" : "security",
				"intentDirection" : true,
				"first" : "initiator"
			},
			"conditions" : [
			{
							"class" : "trait",
							"type" : "alive",
							"first" : "initiator",
							"value" : true
						 }
			],
			"influenceRules" : [
			],
			"leadsTo" : ["hide"]
		},
		{
			"name" : "hide",
			"conditions" : [
						{
							"class" : "trait",
							"type" : "alive",
							"first" : "initiator",
							"value" : true
						 }
			],
			"displayName" : "Take cover",
			"isAccept" : true,
			"influenceRules" : [
				
			],
			"effects" : [{
				"class" : "status",
				"type" : "security",
				"first" : "initiator",
				"operator" : "+",
				"value" : 1
			}
			]
		},
		
		
		
		
		
		
		
		{
			"name" : "HEAL",
			"intent" : {
				"class" : "status",
				"type" : "health",
				"intentDirection" : true,
				"first" : "initiator"
			},
			"conditions" : [
			{
							"class" : "trait",
							"type" : "alive",
							"first" : "initiator",
							"value" : true
						 }
			],
			"influenceRules" : [
			],
			"leadsTo" : ["heal_doctor","heal_self"]
		},
		{
			"name" : "heal_doctor",
			"conditions" : [
						{
							"class" : "trait",
							"type" : "alive",
							"first" : "initiator",
							"value" : true
						 },
						 {
							"class" : "trait",
							"type" : "alive",
							"first" : "responder",
							"value" : true
						 }
			],
			"displayName" : "Get medical attention",
			"isAccept" : true,
			"influenceRules" : [
				{
					"name": "A doctor is more capable of healing others.",
					"conditions": [
						{
							"class" : "ability",
							"type" : "technical",
							"first" : "responder",
							"operator" : ">",
							"value" : 5
						}
					],
					"weight" : 10
				}
				
			],
			"effects" : [{
				"class" : "status",
				"type" : "health",
				"first" : "initiator",
				"operator" : "+",
				"value" : 10
			},
			{
				"class" : "status",
				"type" : "happiness",
				"first" : "initiator",
				"operator" : "+",
				"value" : 10
			},
			{
				"class" : "status",
				"type" : "happiness",
				"first" : "responder",
				"operator" : "+",
				"value" : 10
			},
			{
				"class" : "attitude",
				"type" : "closeness",
				"first" : "initiator",
				"second" : "responder",
				"operator" : "+",
				"value" : 10
			}
			]
		},
		{
			"name" : "heal_self",
			"conditions" : [
						{
							"class" : "trait",
							"type" : "alive",
							"first" : "initiator",
							"value" : true
						 }
			],
			"displayName" : "Treat wounds",
			"isAccept" : true,
			"influenceRules" : [
				
			],
			"effects" : [{
				"class" : "status",
				"type" : "health",
				"first" : "initiator",
				"operator" : "+",
				"value" : 1
			}
			]
		},
		
		
		{
			"name" : "IDLE",
			"intent" : {
				"class" : "status",
				"type" : "sanity",
				"intentDirection" : true,
				"first" : "initiator"
			},
			"conditions" : [
			],
			"influenceRules" : [
			],
			"leadsTo" : ["idle"]
		},
		{
			"name" : "idle",
			"conditions" : [
			],
			"displayName" : "Wait idly",
			"isAccept" : true,
			"influenceRules" : [
			],
			"effects" : [
			{
				"class" : "status",
				"type" : "sanity",
				"first" : "initiator",
				"operator" : "+",
				"value" : 5
			}
			]
		}
		
		
		
	]
}