{
	"history": [{
		"pos": 0,
		"data": [
		
		
		
		{
			"class" : "trait",
			"type" : "NPC",
			"first" : "player",
			"value" : false
		},
		{
			"class" : "ability",
			"type" : "physical",
			"first" : "player",
			"value" : 5
		},
		{
			"class" : "ability",
			"type" : "technical",
			"first" : "player",
			"value" : 5
		},
		
		
		
		
		
		
		
		{
			"class" : "ability",
			"type" : "physical",
			"first" : "guard",
			"value" : 10
		},
		
		
		
		
		
		
		
		{
			"class" : "ability",
			"type" : "social",
			"first" : "actor",
			"value" : 10
		},
		{
			"class" : "trait",
			"type" : "straight",
			"first" : "actor",
			"value" : false
		},
		
		
		
		
		
		
		{
			"class" : "magic",
			"type" : "possessing",
			"first" : "host",
			"second" : "chef",
			"value" : true
		},
		{
			"class" : "trait",
			"type" : "male",
			"first" : "chef",
			"value" : false
		},
		
		
		
		
		
		
		
		
		{
			"class" : "ability",
			"type" : "technical",
			"first" : "doctor",
			"value" : 10
		},
		
		
		
		
		
		
		{
			"class" : "trait",
			"type" : "alive",
			"first" : "host",
			"value" : false
		},
		
		
		
		
		{
			"class" : "trait",
			"type" : "alive",
			"first" : "ghost",
			"value" : false
		},
		{
			"class" : "attitude",
			"type" : "aggression",
			"first" : "ghost",
			"second" : "guard",
			"value" : 50
		},
		{
			"class" : "attitude",
			"type" : "aggression",
			"first" : "ghost",
			"second" : "actor",
			"value" : 50
		},
		{
			"class" : "attitude",
			"type" : "aggression",
			"first" : "ghost",
			"second" : "chef",
			"value" : 50
		},
		{
			"class" : "attitude",
			"type" : "aggression",
			"first" : "ghost",
			"second" : "doctor",
			"value" : 50
		}
		
		
		
		
		]}
	]
}